Avg Number of MST Simple 31.92 | std dev: 3.27926821105
Avg Number of TS Approx: 22.5 | std dev: 2.03224014329
Avg Number of TS Set Cover: 23.94 | std dev: 2.12047164565
Avg Number of TS OPT: -1.0 | std dev: 0.0 TIME: 0.0(s)