Avg Number of TS MST Simple: 4.96 | std dev: 1.37054733592
Avg Number of TS Approx: 4.42 | std dev: 1.3577923258
Avg Number of TS Set Cover: 4.54 | std dev: 1.47254881074
Avg Number of TS OPT: 4.4 | std dev: 1.32664991614 TIME: 0.0(s)