Avg Number of TS MST Simple: 3.98 | std dev: 1.0293687386
Avg Number of TS Approx: 3.0 | std dev: 0.824621125124
Avg Number of TS Set Cover: 3.08 | std dev: 0.820731381147
Avg Number of TS OPT: 2.98 | std dev: 0.836420946653 TIME: 0.0(s)