Avg Number of TS MST Simple: 28.64 | std dev: 2.95133867931
Avg Number of TS Approx: 21.18 | std dev: 1.79655225362
Avg Number of TS Set Cover: 22.28 | std dev: 1.37171425596
Avg Number of TS OPT: -1.0 | std dev: 0.0 TIME: 0.0(s)