(20, 9, 0.27831405608119797)
(20, 37, 1.521685943918802)
(37, 9, 0.64069096671203929)
(33, 21, 0.35557416387808627)
(33, 14, 0.69008874605190351)
(3, 21, 0.27547404733971553)
(3, 14, 0.47886304273029473)
(38, 8, 0.85604845673727048)
(38, 6, 0.94395154326272979)
(15, 8, 0.97993300689966312)
(15, 6, 0.57919695396538617)
(38, 32, 1.0809695923367015)
(38, 20, 0.58970644623508695)
(30, 32, 0.71903040766329862)
(30, 20, 0.44229226911341607)
(2, 24, 1.1373625493209527)
(2, 1, 0.66263745067904722)
(29, 24, 0.47959285446089323)
(29, 1, 0.43614006345747897)
(25, 37, 0.10669471219698798)
(25, 14, 1.5871021680956179)
(19, 37, 0.25026342931825041)
(19, 14, 0.21289783190438219)
(5, 1, 0.67544170231151746)
(5, 11, 0.39606877543431807)
(7, 1, 1.1245582976884825)
(7, 11, 0.45459659342950332)
(32, 0, 0.53225980559358987)
(32, 35, 1.2677401944064102)
(20, 0, 0.16439180285930274)
(20, 35, 0.2975259716999793)
(0, 39, 1.1449110216428715)
(19, 0, 0.31399751911660667)
(19, 39, 0.65508897835712843)
(34, 27, 0.76862451058699099)
(34, 13, 1.0313754894130094)
(38, 27, 0.43884154935375425)
(38, 13, 0.52238968706374711)
(26, 20, 1.3457187398622263)
(26, 38, 0.39997307371996188)
(28, 20, 0.30937602598626635)
(28, 38, 1.4000269262800382)
(10, 16, 0.83851066773584571)
(10, 15, 0.73164310574487001)
(2, 16, 0.88067967330556618)
(2, 15, 0.91932032669443409)
(12, 10, 1.0915507111256371)
(12, 11, 0.77336341969986111)
(4, 10, 0.70844928887436298)
(4, 11, 0.44269187057754744)
(32, 18, 0.46667736253930553)
(32, 7, 0.96621885737003355)
(35, 18, 0.13341345732342014)
(35, 7, 0.83378114262996661)
(0, 9, 1.0148310439983723)
(0, 12, 0.78516895600162762)
(38, 9, 0.48853631841345169)
(38, 12, 0.42074027490370358)
(8, 1, 0.33842806583430923)
(8, 35, 0.44136415095401815)
(17, 1, 1.3377679312667672)
(17, 35, 0.46223206873323275)
(23, 18, 0.38400580360384645)
(23, 31, 0.83069216357027009)
(7, 18, 0.50689752767184537)
(7, 31, 0.96930783642972995)
(1, 24, 0.85949357721216268)
(1, 5, 0.47359094837616872)
(39, 24, 0.94050642278783736)
(39, 5, 0.47128647169607052)
(20, 16, 0.31653902339911899)
(20, 25, 0.093906952283812559)
(39, 16, 1.3529752280363108)
(39, 25, 0.4470247719636895)
(38, 37, 0.71924280605980584)
(38, 21, 0.60519130955752642)
(14, 21, 0.76146814631405413)
(14, 37, 1.038531853685946)
(17, 11, 0.28894745985710918)
(17, 38, 1.5110525401428911)
(11, 38, 0.19739765101574966)
(25, 16, 0.78849256220775588)
(25, 20, 0.27575195923639095)
(6, 16, 1.0115074377922439)
(6, 20, 0.3374476238143877)
(3, 32, 0.35954451608518012)
(3, 2, 0.95824626265502721)
(11, 32, 0.29260113828366074)
(11, 2, 0.1896080829761323)
(11, 9, 0.16661091341912709)
(11, 14, 0.35043128649826921)
(6, 9, 0.88341483384813324)
(6, 14, 0.9165851661518668)
(27, 33, 0.82466923914162327)
(27, 15, 0.97533076085837678)
(13, 33, 0.88079559908389404)
(13, 15, 0.8899250766897594)
(24, 33, 1.4164339384467661)
(24, 28, 0.50312202882599488)
(18, 33, 0.38356606155323364)
(18, 28, 0.24291344248247493)
(2, 25, 1.1064251380839629)
(2, 39, 0.3423019515566707)
(5, 25, 0.69357486191603701)
(5, 39, 0.48650215948807579)
(1, 3, 0.81536777913361991)
(1, 28, 0.98463222086638014)
(21, 3, 0.43091096132239909)
(21, 28, 0.55081807821601014)
(16, 10, 0.25013738947030928)
(16, 38, 0.29367558618567707)
(32, 10, 0.27591727057282533)
(32, 38, 1.506324413814323)
(9, 1, 0.84482486017502889)
(9, 2, 0.95517513982497115)
(21, 1, 0.65969808077858982)
(21, 2, 0.44646525446797841)
(9, 19, 0.52649943580049441)
(9, 30, 1.2735005641995054)
(19, 30, 0.76196169036352934)
(32, 3, 0.5523626607306128)
(32, 19, 0.38881445413779936)
(38, 3, 0.76235439907941183)
(38, 19, 0.096468486052176339)
(25, 4, 1.0431034701614037)
(25, 39, 0.75689652983859634)
(26, 4, 0.68496054072051837)
(26, 39, 0.70180597525184085)
(21, 23, 0.67354856748477243)
(21, 7, 0.80735779007645114)
(7, 23, 1.8)
(26, 5, 0.19582664411316769)
(26, 13, 0.22468406928472809)
(36, 5, 0.62004774914933125)
(36, 13, 1.1799522508506688)
(21, 11, 0.96458332278598891)
(21, 29, 0.48052248315896789)
(14, 11, 0.83541667721401114)
(14, 29, 1.7717576382234457)
(16, 35, 0.79766745996306798)
(16, 12, 0.41906525796560434)
(6, 35, 1.0023325400369321)
(6, 12, 0.7140668750502781)
(28, 34, 0.32456745124730896)
(5, 34, 1.4754325487526914)
(5, 28, 0.25355059717487632)
(33, 3, 0.67040443062485366)
(14, 33, 1.3394119172615875)
(14, 3, 0.46058808273841256)
(13, 21, 0.6413699186750933)
(13, 31, 0.80483398587755228)
(14, 21, 0.74666460236635701)
(14, 31, 0.99516601412244809)
(9, 0, 0.94906002800858924)
(9, 33, 0.35382659875667255)
(3, 0, 0.43665775417699354)
(3, 33, 0.41428221781441721)
(0, 13, 1.2021472208551958)
(0, 6, 0.59785277914480439)
(15, 13, 0.73772244363875716)
(15, 6, 0.2648017973129409)
(3, 29, 1.3434613362981476)
(3, 13, 0.63516687312800491)
(30, 13, 0.90094182449668259)
(30, 29, 0.45653866370185259)
(17, 25, 0.6830786061525197)
(17, 1, 0.68368546544497777)
(2, 25, 1.1169213938474805)
(2, 1, 0.52893186253236668)
(8, 16, 0.28209697184932891)
(8, 38, 0.24424520041113482)
(35, 16, 1.3781568657672298)
(35, 38, 0.42184313423277037)
(12, 38, 0.70858350019375194)
(12, 39, 0.21542480324507379)
(7, 38, 1.0914164998062481)
(7, 39, 0.95998104010622398)
(25, 33, 1.0941337727179119)
(25, 19, 0.49888478523877494)
(26, 33, 0.79030081841720323)
(26, 19, 1.0096991815827967)
(10, 17, 0.76220400454424486)
(10, 11, 0.83109177200150808)
(39, 17, 1.0475281846279842)
(39, 11, 0.75247181537201557)
(8, 20, 0.44551003769509012)
(8, 29, 0.65958908288890983)
(3, 20, 0.41743713069660066)
(3, 29, 0.72297378641448939)
(33, 25, 1.3511820371071719)
(33, 36, 1.1134362317113242)
(11, 25, 0.81903621268745885)
(11, 36, 0.68656376828867594)
(25, 19, 0.34803469861397035)
(25, 29, 1.8)
(7, 19, 0.5542732743131864)
(7, 29, 0.63891220232779833)
(20, 0, 0.63957245763011428)
(20, 18, 0.99438499221258192)
(5, 0, 1.1604275423698858)
(5, 18, 0.62620497748872117)
(17, 32, 1.2749395810712036)
(17, 19, 0.31323748409081081)
(20, 32, 0.52506041892879651)
(20, 19, 1.0690223074839893)
(17, 10, 0.8030882930738259)
(17, 37, 0.99691170692617415)
(34, 10, 0.398802841265887)
(34, 37, 0.65436087533401432)
(20, 25, 0.39860082858845014)
(20, 35, 0.80793461063330285)
(4, 25, 1.130315493337035)
(4, 35, 0.99206538936669686)
(0, 18, 0.97983997190771166)
(0, 37, 0.91115566070887655)
(5, 18, 0.82016002809228827)
(5, 37, 0.81083951723565895)
(16, 17, 1.2599480051183867)
(16, 21, 0.39713529909045764)
(15, 17, 0.54005199488161337)
(15, 21, 0.31894016455145296)
(1, 24, 1.3085384224842005)
(1, 26, 0.49146157751579961)
(7, 24, 1.0188351376587197)
(7, 26, 0.37353302122784177)
(4, 28, 0.40678643978610057)
(4, 21, 0.11098700663794567)
(14, 28, 1.4639182671093645)
(14, 21, 0.33608173289063559)
(33, 15, 0.23414508302717055)
(33, 7, 0.67089000320717274)
(36, 7, 0.95772839308046231)
(36, 15, 0.84227160691953784)
(4, 28, 0.33388280806064452)
(4, 36, 1.0812159842851246)
(14, 36, 0.71878401571487549)
(14, 28, 0.4832767353955193)
(32, 6, 0.96591877073529664)
(21, 32, 0.2952177449730074)
(21, 6, 0.83408122926470341)
(9, 1, 0.29364756446935286)
(9, 28, 0.23931644907473532)
(39, 1, 1.5063524355306472)
(39, 28, 0.54484135932109223)
(12, 26, 0.38047448932517924)
(31, 26, 0.66502204167736401)
(31, 12, 1.134977958322636)
(37, 9, 0.53152691779217787)
(37, 1, 0.62404078048618306)
(22, 1, 0.64778036337183775)
(22, 9, 1.8)
(5, 10, 0.57918344910443775)
(5, 35, 1.166440531465269)
(22, 10, 0.45637051325862782)
(22, 35, 0.633559468534731)
(16, 12, 0.74068345560929771)
(16, 39, 1.2199625169060089)
(26, 12, 0.56498771201166886)
(26, 39, 0.58003748309399139)
(37, 3, 0.77780380106794611)
(37, 27, 1.022196198932054)
(23, 27, 1.1758402143375928)
(23, 3, 1.5315962534091931)
(26, 24, 0.70211545067836412)
(26, 27, 0.64267971622713249)
(39, 24, 1.8)
(39, 27, 1.7103863861994577)
(8, 0, 1.4372315422139388)
(8, 38, 0.3627684577860612)
(17, 0, 0.25636379065247733)
(17, 38, 0.8820664903611678)
(14, 20, 0.33774879253396223)
(14, 15, 0.79376742973725112)
(39, 20, 0.2494142990049934)
(39, 15, 1.5505857009950068)
(20, 2, 0.22154383662193558)
(20, 13, 1.0839297397460237)
(21, 2, 0.6773429609402386)
(21, 13, 1.1226570390597614)
(35, 21, 0.41751935528208811)
(35, 14, 0.56262844291639869)
(4, 21, 0.35877369249738444)
(4, 14, 0.46107850930412886)
(16, 35, 0.57211944959527872)
(16, 14, 1.2278805504047212)
(9, 35, 0.48361812303607993)
(9, 14, 0.44335123601178211)
(3, 11, 0.67221578070250365)
(3, 38, 1.0845917573845851)
(12, 11, 0.59683426386591265)
(12, 38, 0.71540824261541491)
(11, 16, 0.93248135124680254)
(11, 25, 0.70250668237958847)
(21, 16, 0.8675186487531974)
(21, 25, 0.65543902255452124)
(5, 36, 1.4874435031526381)
(5, 13, 0.86407527132324413)
(6, 36, 0.31255649684736198)
(6, 13, 0.21553249826552937)
(13, 9, 0.71486319416897293)
(13, 34, 1.0851368058310271)
(23, 9, 0.44172176329286517)
(23, 34, 0.20114823825319134)
(10, 25, 0.3522146404541755)
(10, 28, 0.31623413828128405)
(31, 25, 0.97221359924338757)
(31, 28, 0.82778640075661258)
(8, 29, 0.69847689383302369)
(8, 22, 1.1015231061669764)
(6, 29, 0.28912681085401659)
(6, 22, 0.32797997126654793)
(0, 19, 0.26477729065897954)
(0, 28, 0.60473797272483909)
(6, 19, 0.42627979027924612)
(6, 28, 1.1952620272751608)
(32, 33, 1.8)
(32, 35, 0.95982632577225324)
(31, 33, 1.0293483682491102)
(31, 35, 0.66106345365534036)
(25, 17, 0.96560365037391782)
(25, 23, 0.99180071084531551)
(21, 17, 0.83439634962608233)
(21, 23, 0.54291364082035187)
(8, 23, 1.1778520594640802)
(17, 8, 0.71571293570451855)
(17, 23, 0.62214794053591993)
(2, 34, 1.2160265808030173)
(2, 23, 0.61430631779872635)
(31, 34, 0.58397341919698287)
(31, 23, 0.38512019741506365)
(1, 30, 0.8510321785336018)
(1, 14, 0.94896782146639802)
(26, 30, 0.52449680809198607)
(26, 14, 0.80192841649080848)
(34, 2, 0.94656949029680015)
(34, 5, 0.85343050970319978)
(37, 2, 0.47476130952823953)
(37, 5, 0.79404399874464482)
(8, 24, 0.77867357872979526)
(8, 16, 0.52760454577282723)
(30, 16, 0.83537957560382992)
(30, 24, 0.96462042439617013)
(17, 16, 0.56784628361121614)
(17, 27, 0.36111435409244313)
(30, 16, 0.21055519447938678)
(30, 27, 1.438885645907557)
(35, 20, 0.37575040278087363)
(35, 29, 1.4242495972191263)
(21, 20, 0.64917400617402909)
(21, 29, 0.29026694764410355)
(0, 33, 0.2654095704200648)
(0, 22, 0.97933539062489927)
(3, 33, 0.56890293143738102)
(3, 22, 0.82066460937510088)
(8, 30, 0.91584962484386856)
(8, 39, 0.20743377899252763)
(1, 30, 0.27713128336293408)
(1, 39, 0.39958531280066972)
(18, 35, 0.31340407589762387)
(18, 7, 0.45787913730782598)
(12, 35, 0.65546438419107289)
(12, 7, 1.0287167867945501)
(2, 17, 0.17198200129143024)
(2, 12, 1.1784585715573832)
(36, 17, 0.18409830313699446)
(36, 12, 0.26546112401419231)
(29, 32, 0.12249571332967804)
(29, 6, 0.27858784859005709)
(13, 32, 0.57107602699213111)
(13, 6, 0.82784041108813355)
(24, 8, 1.010616020928619)
(24, 18, 0.78938397907138069)
(18, 8, 0.31166119769891476)
(25, 11, 0.66643898342984287)
(25, 23, 1.0908719359117469)
(38, 11, 0.75843936012579527)
(38, 23, 1.0415606398742048)
(26, 36, 0.50227292610505558)
(26, 28, 0.16678645215021681)
(15, 36, 1.1241448127991189)
(15, 28, 0.67585518720088089)
(19, 12, 0.18223196865115759)
(19, 22, 0.17223444140351482)
(31, 12, 1.3690439912709638)
(31, 22, 0.43095600872903622)
(3, 35, 0.28062175739166478)
(28, 3, 0.33209574287731231)
(28, 35, 1.4679042571226879)
(9, 5, 0.31501488351007839)
(9, 7, 1.1446813650241323)
(22, 5, 0.29868205011961058)
(22, 7, 0.34030375146578956)
(25, 32, 0.69398768048454373)
(25, 3, 1.0459201954019286)
(15, 32, 0.67099923522437233)
(15, 3, 0.75407980459807156)
(26, 16, 0.28651362277564629)
(26, 14, 0.71785198647339754)
(23, 16, 0.80835888847751891)
(23, 14, 1.0821480135266024)
(3, 8, 0.5817736054082745)
(3, 31, 0.51549032930598782)
(19, 8, 0.33727117392374839)
(19, 31, 0.3654648913619894)
(32, 16, 1.8)
(32, 3, 0.76002957759547773)
(18, 16, 0.59675199472300888)
(18, 3, 0.37187894603640492)
(29, 3, 0.84610342659049176)
(29, 22, 1.2543782326582067)
(38, 3, 0.73536734348930555)
(38, 22, 0.54562176734179346)
(17, 25, 0.99241744184136671)
(17, 10, 0.80758255815863322)
(23, 25, 1.2848100071096855)
(23, 10, 0.79655092512011394)
(33, 21, 0.97999741737419155)
(33, 37, 0.82000258262580838)
(28, 37, 0.13202201362646834)
(28, 21, 0.64719266138370024)
(8, 16, 1.0135009069122574)
(8, 21, 0.6835759375885534)
(2, 16, 0.7864990930877428)
(2, 21, 0.41918339613509736)
(20, 9, 0.36074671631324512)
(20, 3, 0.50135721308537462)
(22, 9, 1.4392532836867551)
(22, 3, 0.52148363212871773)
(0, 22, 0.60586675672468593)
(0, 31, 0.32756929001203566)
(3, 22, 1.1941332432753142)
(3, 31, 0.56556531207485494)
(34, 18, 0.63196936407870052)
(34, 20, 0.19955157504978902)
(39, 18, 1.1192960744922549)
(39, 20, 0.68070392550774539)
(11, 36, 0.31439028358841298)
(11, 37, 0.46617115319998043)
(13, 36, 0.74481955781741804)
(13, 37, 0.27461900539418865)
(33, 26, 0.60769701898515927)
(33, 14, 1.1058683388741191)
(27, 26, 0.23565760465664276)
(27, 14, 0.69413166112588109)
(34, 2, 1.4317894887394766)
(34, 6, 1.0184203110505425)
(29, 2, 1.2699480044332687)
(29, 6, 0.53005199556673133)
(4, 19, 0.35904032964027027)
(4, 7, 1.8)
(15, 19, 0.81924641651474772)
(15, 7, 0.84478210287191058)
(17, 25, 0.54952754661324466)
(17, 39, 1.5921767549785992)
(10, 25, 0.15376792440435552)
(10, 39, 0.2078232450214007)
(26, 2, 0.33360129280570827)
(26, 19, 0.49495617506329059)
(23, 2, 0.49500859876519054)
(23, 19, 0.47643393336581097)
(14, 17, 0.49554902565087755)
(14, 36, 0.28700778947558331)
(15, 17, 0.25217043405800621)
(15, 36, 0.76527275081553292)
(24, 26, 0.56837465300599299)
(24, 14, 1.2075979072945173)
(4, 26, 0.32222084049566507)
(4, 14, 0.59240209270548261)
(11, 1, 0.1950280059044471)
(11, 17, 0.41699349949745101)
(39, 17, 1.3484917555161411)
(39, 1, 0.45150824448385907)
(27, 32, 0.15461433574013217)
(27, 1, 0.42605531767452925)
(7, 32, 0.58074674110541669)
(7, 1, 1.2192532588945832)
(12, 27, 0.70443918688201401)
(12, 5, 1.0955608131179859)
(39, 27, 0.55932110339361296)
(39, 5, 0.33292965415190329)
(20, 9, 0.6764767690202218)
(20, 21, 1.1235232309797785)
(5, 9, 1.7504212662716909)
(5, 21, 0.61765465931615704)
(4, 9, 0.93743943682801445)
(4, 33, 0.44965969993277266)
(7, 9, 0.86256056317198559)
(7, 33, 0.71452529622688099)
(8, 30, 1.4100114516041238)
(8, 6, 0.32565029411070157)
(16, 30, 0.38998854839587638)
(16, 6, 0.98762101579613226)
(24, 3, 0.29999664188082253)
(24, 22, 0.22977243107796944)
(7, 3, 1.0272536081774177)
(7, 22, 0.47274974994175972)
(10, 8, 0.3740457238456355)
(10, 7, 0.49689404169497586)
(22, 8, 0.79351836184781688)
(22, 7, 1.0064816381521833)
(32, 3, 1.2352241718085808)
(32, 22, 0.56477582819141936)
(14, 3, 0.64968920517591111)
(14, 22, 0.29734594208431814)
(36, 19, 0.58937359562289937)
(36, 39, 1.2106264043771007)
(13, 19, 0.55164932698591618)
(13, 39, 1.111629442593419)
(13, 17, 0.29687225379445115)
(13, 15, 0.94270531698587912)
(22, 17, 0.25944715408837055)
(22, 15, 0.56042242921966945)
(16, 22, 0.60717090570616894)
(16, 7, 0.67276281493804857)
(0, 22, 1.1928290942938309)
(0, 7, 0.93633530504563656)
(34, 12, 0.96831599107447852)
(34, 22, 0.83168400892552163)
(39, 12, 0.80206592040244795)
(39, 22, 0.75106129073834127)
(25, 3, 0.93421094975797214)
(25, 5, 0.8651595355451045)
(36, 3, 0.86578905024202801)
(36, 5, 0.70436142253012779)
(8, 34, 1.1508834075506895)
(8, 11, 0.41532141987791915)
(14, 34, 0.64911659244931053)
(14, 11, 0.52168491717881271)
(0, 17, 0.43870712822687935)
(0, 12, 1.090365159655913)
(2, 17, 0.42792055125866479)
(2, 12, 0.70963484034408708)
(8, 29, 0.99779904208849501)
(8, 23, 0.80220095791150525)
(18, 29, 0.54957087289198658)
(18, 23, 0.55214896810211234)
(18, 19, 0.81517327157492492)
(18, 30, 0.67475888491490554)
(2, 19, 0.22634051621438583)
(2, 30, 1.1252411150850945)
(10, 28, 0.58208810965305458)
(30, 10, 1.0463443921839835)
(30, 28, 1.2179118903469455)
(16, 24, 1.2869149574007819)
(16, 7, 0.4929290430958988)
(4, 24, 0.1908263380196959)
(4, 7, 1.8)
(16, 8, 0.97153528038617487)
(16, 19, 0.35921882087539098)
(32, 8, 0.82846471961382517)
(32, 19, 0.41961199402455535)
(12, 38, 0.39662690294509939)
(12, 23, 1.3038573712769805)
(7, 38, 0.67289296872622451)
(7, 23, 1.1271070312737754)
(8, 5, 1.4721060537796447)
(8, 37, 0.32789394622035528)
(11, 37, 0.86844690978803929)
(11, 5, 0.2209834976491086)
(11, 18, 0.58241899792870999)
(11, 5, 0.50509982020467548)
(12, 18, 0.13634439749292712)
(12, 5, 1.2949001797953246)
(34, 11, 0.14518567769873608)
(34, 13, 0.87086310316368198)
(36, 11, 0.34135055513762042)
(36, 13, 0.44260066399996145)
(32, 21, 0.40348406716874807)
(32, 6, 0.61272967247904087)
(36, 21, 0.25509579248793796)
(36, 6, 0.52869046786427332)
(0, 27, 1.7818454313890195)
(11, 0, 0.78484596593929823)
(11, 27, 1.0151540340607017)
(18, 4, 0.16299216372845465)
(18, 38, 0.83079625374953081)
(19, 4, 0.7036391019140632)
(19, 38, 0.96920374625046934)
(17, 26, 0.51760319556686951)
(17, 38, 1.2823968044331309)
(38, 26, 0.41845780424760182)
(24, 27, 0.36101242276251128)
(24, 28, 0.25164242987679947)
(4, 27, 0.98497585502163587)
(4, 28, 0.20236929233905346)
(8, 26, 0.19899385326995864)
(8, 2, 0.63540278658558613)
(7, 2, 0.56552306053363077)
(7, 26, 0.40008029961082436)
(36, 8, 0.65407162051678736)
(36, 26, 0.49544548444194914)
(30, 8, 1.1459283794832127)
(30, 26, 0.26997829633402687)
(32, 19, 0.65981540192829058)
(32, 31, 1.1401845980717094)
(27, 19, 0.56398433648729773)
(27, 31, 0.70853225034126122)
(12, 10, 1.2271950533476301)
(12, 11, 0.68315923605862272)
(4, 10, 0.57280494665237003)
(4, 11, 0.4051108717637904)
(16, 24, 0.9386101010126523)
(16, 23, 0.42453467856681226)
(9, 24, 0.68084690023154049)
(9, 23, 1.7999999999999998)
(36, 11, 0.29178883720118226)
(36, 15, 0.4805991770902095)
(5, 11, 0.27910029704851869)
(5, 15, 1.3194008229097904)
(4, 22, 1.7999999999999998)
(4, 7, 0.94921428441769551)
(22, 7, 1.4266025453013724)
(10, 35, 0.9580171820677803)
(10, 5, 0.35987590827480143)
(26, 35, 0.84198281793221985)
(26, 5, 0.27305216773238233)
(37, 38, 0.41302444789083997)
(37, 23, 0.39956781156375604)
(7, 38, 0.50424324355496641)
(7, 23, 1.2957567564450336)
(0, 32, 0.55683704889388363)
(0, 25, 1.8)
(22, 32, 0.47049432314278683)
(22, 25, 0.75072960777603759)
(34, 21, 0.42407006393233793)
(34, 15, 0.67316459403498985)
(37, 21, 0.51848132678551306)
(37, 15, 0.18428401524715921)
(0, 9, 1.0676411969888009)
(0, 36, 0.22328429217761522)
(7, 9, 0.73235880301119904)
(7, 36, 0.25005445977709345)
(25, 16, 0.44593915992211364)
(25, 39, 0.40197170653905617)
(33, 16, 1.1834055087384814)
(33, 39, 1.3980282934609438)
(0, 14, 0.6479041129380253)
(0, 7, 1.8000000000000003)
(28, 14, 0.92750105659024817)
(28, 7, 1.2714524913761729)
(37, 13, 0.37190672421646437)
(37, 39, 0.5275001754832791)
(31, 13, 0.86773283661479139)
(31, 39, 1.2724998245167212)
(32, 35, 0.63423176042159757)
(32, 21, 0.54287381053239214)
(38, 35, 1.1657682395784024)
(38, 21, 0.52568517939492065)
(34, 18, 0.21735352382978401)
(34, 36, 1.2851560267974234)
(18, 36, 0.5148439732025768)
(5, 11, 1.036475599799926)
(5, 30, 1.3671965767069825)
(15, 11, 0.76352440020007417)
(15, 30, 1.2924486177618668)
(8, 13, 0.9489239820092481)
(8, 15, 0.85107601799075183)
(32, 13, 0.69204135153351531)
(32, 15, 0.28118272648219511)
(32, 35, 1.490550828092694)
(23, 32, 0.79293447836810271)
(23, 35, 0.30944917190730609)
(30, 33, 1.1559408695741771)
(30, 28, 0.64405913042582286)
(23, 33, 0.3566389977352149)
(23, 28, 0.20477943031035489)
(3, 18, 0.3463674479293643)
(3, 7, 1.4536325520706357)
(20, 18, 0.87171275630541345)
(20, 7, 0.38665432383670184)
(34, 9, 1.5246825767217844)
(34, 18, 0.27531742327821551)
(12, 9, 0.417373868744495)
(12, 18, 0.1120773099267177)
(5, 17, 0.40308091170204019)
(5, 9, 1.3135669448410419)
(38, 9, 0.48643305515895807)
(38, 17, 0.8259599921991656)
(11, 22, 0.66018731553451415)
(6, 11, 0.72946149165839003)
(6, 22, 1.0705385083416099)
(11, 4, 0.30984272747081759)
(11, 7, 0.4765561443750071)
(4, 7, 1.8)
(24, 33, 0.27105066561379332)
(24, 17, 0.47960387960601453)
(6, 33, 0.42799955315948518)
(6, 17, 1.3203961203939856)
(1, 8, 0.70271360709321884)
(1, 11, 0.41557976061791779)
(39, 8, 1.0972863929067813)
(39, 11, 0.49762726451342348)
(39, 11, 0.64560335077204578)
(39, 14, 0.85320410712286132)
(23, 11, 0.46214652877039752)
(23, 14, 0.69225012045755674)
(34, 5, 0.72387658212465555)
(34, 22, 1.0761234178753447)
(19, 5, 0.65670075409892126)
(19, 22, 0.12518156870304975)
(27, 33, 1.8)
(27, 20, 0.65746158967147128)
(20, 33, 1.467229718306245)
(3, 12, 1.8)
(3, 23, 0.92899009737190452)
(23, 12, 1.7070396002358772)
(19, 20, 0.84785646781921253)
(19, 21, 0.9521435321807874)
(20, 21, 0.27963281662323464)
(36, 13, 1.3041283570868074)
(36, 23, 0.49587164291319275)
(15, 13, 0.96096645007179837)
(15, 23, 0.36973230079552749)
(3, 12, 1.0484307866450469)
(3, 38, 0.7515692133549533)
(38, 12, 0.28434573744514746)
(32, 24, 1.1649813447053545)
(32, 19, 0.59720009233839588)
(36, 24, 0.63501865529464552)
(36, 19, 0.31448857786062556)
(4, 13, 1.4459239788708873)
(4, 39, 0.50304347895411416)
(13, 39, 1.2969565210458862)
(24, 16, 0.93017357688017777)
(24, 21, 0.63661146817289405)
(14, 16, 0.90399154683351046)
(14, 21, 0.89600845316648947)
(9, 33, 1.5856020345696635)
(9, 23, 1.8)
(31, 33, 1.7509710004654828)
(31, 23, 1.2054762488046604)
(9, 24, 0.48757776971395034)
(9, 17, 0.67581498906811521)
(39, 24, 0.82990392422446746)
(39, 17, 0.97009607577553247)
(6, 24, 1.2473982335894254)
(6, 3, 0.27187383407727161)
(7, 24, 0.55260176641057468)
(7, 3, 1.4757790702724087)
(35, 0, 0.86022238990082578)
(35, 11, 0.68759201942869752)
(7, 0, 1.8000000000000003)
(7, 11, 0.82566998167744643)
(35, 0, 0.81516977496687637)
(35, 18, 0.35360810897835615)
(13, 0, 1.4876046868956483)
(13, 18, 0.31239531310435176)
(25, 22, 0.55653830300377882)
(25, 30, 1.6279148388337836)
(6, 22, 0.13662870583625228)
(6, 30, 0.17208516116621655)
(32, 19, 0.78731940555722102)
(32, 7, 1.0683129155490501)
(10, 19, 1.012680594442779)
(10, 7, 0.16774868230239601)
(24, 11, 0.91918090640896333)
(24, 20, 0.67739475694181372)
(30, 11, 0.45270186640283905)
(30, 20, 0.20342433664922316)
(3, 36, 0.47805806890232078)
(3, 29, 0.6743768114098988)
(22, 36, 0.39247991248860964)
(22, 29, 1.4075200875113905)
(10, 2, 0.38180810719781721)
(10, 5, 0.59079434594492408)
(30, 2, 1.4738837069267243)
(30, 5, 1.209205654055076)
(8, 16, 0.33823294324704029)
(8, 28, 0.45511218218343691)
(7, 16, 1.0502521462805141)
(7, 28, 1.0066548745695227)
(32, 8, 1.2641723688418087)
(32, 18, 0.53582763115819132)
(14, 8, 1.0810632181757684)
(14, 18, 0.55486139559176695)
(0, 8, 1.3105286082882206)
(0, 35, 0.42573458641593565)
(32, 8, 0.48947139171177945)
(32, 35, 1.2862574019211459)
