(56, 1, 1.0907301620885335)
(56, 38, 0.70926983791146658)
(9, 1, 1.1380181990958076)
(9, 38, 0.56538319380740731)
(69, 34, 0.77979603546153964)
(69, 3, 0.24210096886909563)
(62, 34, 0.41311899585700529)
(62, 3, 0.36498399981235963)
(26, 48, 0.11320757888288339)
(26, 81, 0.42388706286634115)
(29, 48, 0.43452390454859757)
(29, 81, 0.82838145370217808)
(89, 0, 0.437707164416203)
(89, 66, 0.81787976793383899)
(37, 0, 0.25106437827142641)
(37, 66, 0.29334868937853142)
(27, 56, 0.59504896403421481)
(27, 73, 0.039159555890719053)
(30, 56, 0.70378418050907066)
(30, 73, 0.46200729956599523)
(60, 67, 1.1799066677281305)
(60, 39, 0.34414920756705786)
(13, 67, 1.8)
(13, 39, 0.46381846394337195)
(65, 36, 0.73189888892902222)
(65, 5, 1.0681011110709775)
(46, 36, 1.5145463691951404)
(46, 5, 0.48629773560452327)
(83, 58, 1.1502610305113918)
(83, 11, 1.1072720291184166)
(47, 58, 0.38889760732950168)
(47, 11, 1.4111023926704982)
(7, 74, 0.71966403172804716)
(7, 83, 1.0803359682719529)
(63, 74, 0.34351269629377068)
(63, 83, 0.38397835840828226)
(16, 26, 0.51820788095293557)
(16, 54, 0.97482598882760318)
(27, 26, 0.25105144976085741)
(27, 54, 0.82517401117239697)
(18, 83, 0.49125387782527979)
(18, 14, 1.3087461221747203)
(28, 83, 0.28966489717596161)
(28, 14, 0.95043191679220418)
(57, 67, 0.4763157427191404)
(57, 30, 0.23955806404634258)
(68, 67, 0.47830729420144102)
(68, 30, 0.84537696307941845)
(80, 50, 0.9615232888216142)
(80, 79, 0.54984934813888053)
(60, 50, 0.83847671117838574)
(60, 79, 0.403514257400234)
(41, 47, 0.15617732294187658)
(41, 87, 0.19236020152327402)
(59, 87, 1.6076397984767259)
(59, 47, 0.17643228729795521)
(64, 11, 0.73866151273583402)
(64, 52, 1.7999999999999998)
(21, 11, 0.56684373732733351)
(21, 52, 0.89540476571395644)
(0, 84, 0.38145357193966567)
(0, 29, 0.92546723386198337)
(32, 84, 0.21608987323619003)
(32, 29, 0.87453276613801645)
(1, 20, 0.90109581831466901)
(1, 45, 0.89890418168533093)
(46, 20, 0.54423767869338369)
(46, 45, 1.7928155867806621)
(32, 50, 1.36643732150735)
(32, 87, 0.4335626784926499)
(24, 50, 0.97241920861491749)
(24, 87, 0.39923286873046804)
(32, 91, 0.27857106766936085)
(32, 4, 1.8)
(79, 91, 0.17246936022021034)
(79, 4, 0.23415222013653381)
(81, 40, 0.54609366518365932)
(81, 26, 1.2539063348163408)
(61, 40, 0.45991962064185732)
(61, 26, 0.62238743093364857)
(72, 24, 0.52767771640782735)
(72, 86, 0.54618926374998844)
(73, 24, 0.23745271777574717)
(73, 86, 0.48868030206643714)
(9, 75, 1.3951329647713511)
(9, 20, 0.40486703522864892)
(82, 75, 0.4558284582790405)
(82, 20, 0.36068058040012996)
(19, 40, 0.41312563662222651)
(19, 13, 0.42268764534135933)
(87, 40, 0.42310205865152622)
(87, 13, 1.377312354658641)
(27, 1, 0.64204468138274307)
(27, 63, 0.60615719900704201)
(70, 1, 1.8)
(70, 63, 0.5081735908379621)
(65, 28, 0.60839531539480596)
(65, 5, 1.1916046846051938)
(91, 28, 0.16309066974840347)
(91, 5, 0.46149211605836504)
(56, 80, 0.98066701009800628)
(56, 63, 0.6623305515833271)
(74, 80, 1.8)
(74, 63, 0.59647359311777126)
(16, 41, 0.56622881786214618)
(16, 46, 0.54292098436253522)
(71, 41, 0.69085019777531886)
(71, 46, 0.36826840310615916)
(19, 24, 0.50644423602795963)
(19, 84, 0.2169515640281505)
(39, 24, 1.2935557639720405)
(39, 84, 0.66285412530820453)
(69, 75, 0.90503225401991905)
(69, 23, 0.894967745980081)
(87, 75, 0.55810264673704457)
(87, 23, 0.67056937573362196)
(68, 40, 0.57611418059972641)
(68, 60, 1.2238858194002735)
(47, 40, 0.51607808399810384)
(47, 60, 0.87707926782396106)
(0, 16, 0.61743202637156314)
(0, 71, 0.8017861575068016)
(4, 16, 0.26999909517615356)
(4, 71, 0.11078272094548196)
(66, 82, 1.0065661156666268)
(66, 37, 0.79343388433337325)
(29, 82, 0.83616144696926109)
(29, 37, 0.48853468332291883)
(11, 50, 0.39301574772012293)
(11, 67, 0.15553224717142902)
(21, 50, 1.0738214519384492)
(21, 67, 0.72617854806155069)
(9, 60, 1.8000000000000003)
(9, 39, 0.86334282249334404)
(20, 60, 0.88276441551416662)
(20, 39, 0.48460426756756492)
(43, 24, 0.65938993578525829)
(43, 68, 1.1406100642147416)
(30, 24, 0.29560480575397718)
(30, 68, 1.0335194929082547)
(40, 42, 0.47409428570821555)
(40, 12, 0.75361558881076307)
(27, 42, 0.75563318636292975)
(27, 12, 1.0443668136370705)
(35, 2, 0.75508797555077678)
(35, 6, 0.88777965404520753)
(37, 2, 0.15713237040401593)
(37, 6, 0.53478025919741612)
(61, 59, 1.197241144400885)
(61, 78, 0.60275885559911524)
(38, 59, 0.28883966824789314)
(38, 78, 0.57872197998822061)
(3, 34, 0.85797575365288881)
(3, 75, 0.57687595865085051)
(85, 34, 0.94202424634711124)
(85, 75, 0.87479634953211827)
(8, 37, 0.3791147684955446)
(8, 86, 1.0544552973713066)
(76, 37, 0.62873996453453773)
(76, 86, 1.1712600354654625)
(56, 48, 0.91233071666542209)
(56, 36, 0.80115073187132824)
(49, 48, 1.0307826490671537)
(49, 36, 0.76921735093284616)
(1, 73, 1.254098853509177)
(29, 73, 0.48407245279697703)
(29, 1, 1.3159275472030232)
(16, 59, 1.4909576724056901)
(16, 87, 1.2574409341413093)
(2, 59, 0.8569609188503382)
(2, 87, 0.54255906585869085)
(65, 64, 1.2270436750710729)
(65, 76, 0.80507203194883525)
(3, 64, 0.57295632492892712)
(3, 76, 0.42220377225302252)
(50, 24, 0.6581407407085812)
(50, 33, 0.33708531678930592)
(43, 24, 1.4316763206234093)
(43, 33, 0.36832367937659061)
(61, 49, 0.91741914217355969)
(61, 22, 0.88258085782644025)
(63, 49, 0.53935322542748043)
(63, 22, 0.4075335027392174)
(37, 43, 0.29640695908987574)
(37, 30, 0.52601813257531171)
(45, 43, 0.797404627920692)
(45, 30, 1.2739818674246881)
(41, 36, 0.18289803723219214)
(41, 31, 1.3614417078598704)
(5, 36, 0.24067318907199353)
(5, 31, 0.25566025490793753)
(6, 45, 0.73649204188746631)
(6, 78, 0.21418536409201711)
(14, 45, 1.0635079581125337)
(14, 78, 0.27987687018448948)
(9, 19, 0.30118710844951141)
(9, 36, 0.56525454220747673)
(71, 19, 0.45607350911056216)
(71, 36, 0.47748484023244953)
(0, 56, 0.45824341181488665)
(0, 20, 0.4235442723208715)
(44, 56, 1.3417565881851132)
(44, 20, 0.42467419753618213)
(89, 33, 0.52500188425646965)
(89, 3, 0.48767180938706955)
(74, 33, 0.56739692953584275)
(74, 3, 1.3123281906129305)
(89, 49, 1.3594303881277683)
(89, 69, 1.8)
(46, 49, 0.85470604819324736)
(46, 69, 1.0240792066212985)
(10, 44, 0.45113094770469314)
(43, 10, 0.34892838140380317)
(43, 44, 1.3488690522953068)
(67, 57, 0.25765323559395797)
(67, 82, 1.0220351745193521)
(59, 57, 0.55683058617355208)
(59, 82, 0.98551617823248971)
(67, 8, 0.99100257661528812)
(67, 46, 0.37316138858732545)
(61, 8, 0.80899742338471203)
(61, 46, 0.25965469877204916)
(50, 34, 1.1760010463295107)
(50, 37, 0.45427336561826531)
(20, 34, 0.6239989536704893)
(20, 37, 0.17596765076046009)
(77, 65, 1.0487908648137263)
(77, 85, 1.8)
(55, 65, 0.43083877788793029)
(55, 85, 0.29225108777576164)
(66, 25, 1.2285264701040368)
(66, 55, 0.57147352989596323)
(45, 25, 0.50171735015744345)
(45, 55, 0.44794330285732448)
(10, 22, 0.7303510412806713)
(10, 86, 0.34662097303125483)
(60, 86, 0.81299318827741629)
(60, 22, 0.98700681172258398)
(48, 25, 1.4685445937547477)
(48, 2, 0.09284311272583036)
(60, 25, 0.33145540624525244)
(60, 2, 0.3155822011412131)
(35, 20, 1.2215865874678562)
(35, 21, 0.57841341253214396)
(61, 20, 0.58561641580697554)
(61, 21, 0.44246662095682915)
(26, 58, 0.53034038007907602)
(26, 36, 0.47693282985165225)
(27, 58, 0.5391172732620314)
(27, 36, 0.25360951680724031)
(21, 49, 0.59035833431120599)
(21, 10, 0.26881185234902621)
(30, 49, 0.94082981333976778)
(30, 10, 0.3147278167907695)
(33, 24, 1.4326784597101818)
(33, 23, 0.12332208854034961)
(84, 24, 0.27917587405044486)
(84, 23, 0.24399945174946852)
(41, 69, 1.8)
(41, 39, 0.34768419283161311)
(59, 69, 0.62866436630737188)
(59, 39, 0.55545834895820079)
(57, 24, 0.84797331074175841)
(57, 4, 0.95202668925824185)
(90, 24, 0.34176407040246709)
(90, 4, 0.65865275696021619)
(17, 1, 0.64504413326998911)
(17, 33, 0.33571946067187541)
(63, 1, 0.63014329639379951)
(63, 33, 0.1890931096643361)
(90, 40, 1.0067341209943699)
(90, 19, 0.34399742655732157)
(7, 40, 0.79326587900563028)
(7, 19, 0.38421534935981771)
(66, 18, 0.306236167839403)
(66, 75, 1.0225949053468075)
(29, 18, 1.3479974253555373)
(29, 75, 1.8)
(53, 57, 0.70123564699745977)
(6, 57, 0.36108733253949932)
(6, 53, 1.4389126674605008)
(17, 35, 0.45271779790111388)
(17, 76, 1.3472822020988862)
(10, 35, 0.19219112715263703)
(10, 76, 0.2331516746517471)
(9, 63, 0.6956240265104493)
(9, 23, 1.6557936068093342)
(19, 23, 0.60498997236962693)
(19, 63, 0.49938600111992365)
(66, 42, 1.4204017608083932)
(66, 2, 0.37959823919160679)
(86, 2, 0.49617071297641696)
(86, 42, 0.75713203402440177)
(41, 81, 0.66732584522940108)
(41, 10, 0.11140777591020373)
(18, 81, 1.1326741547705987)
(18, 10, 0.06633604491873131)
(90, 57, 0.15100738046166057)
(90, 4, 0.10567859674349826)
(7, 57, 0.40653966803371311)
(7, 4, 1.3934603319662868)
(74, 11, 0.31274149351174457)
(74, 68, 0.44481928849039681)
(15, 11, 0.38549890710582324)
(15, 68, 0.65694031089203542)
(12, 27, 0.84693532446842135)
(12, 86, 0.49468412962028085)
(14, 27, 0.638300620258347)
(14, 86, 0.31476405527323176)
(35, 27, 1.8)
(35, 55, 1.133839887617649)
(63, 27, 0.62281591953263038)
(63, 55, 0.38398176350427304)
(24, 48, 0.51184151056172755)
(24, 3, 0.14516953755348766)
(51, 48, 0.81942632239168556)
(51, 3, 0.32356262949309916)
(59, 40, 0.85873946041208804)
(59, 54, 0.94126053958791212)
(23, 40, 0.76654125691889352)
(23, 54, 0.87573264160263464)
(42, 0, 0.5220536734298532)
(42, 29, 1.2779463265701467)
(11, 0, 0.2642762675545669)
(11, 29, 0.3777984398232202)
(8, 48, 0.89364353500128713)
(8, 61, 0.59440050651266274)
(30, 48, 0.90635646499871303)
(30, 61, 0.46665578557436654)
(24, 16, 0.99477670561736764)
(24, 57, 0.19518411377567638)
(59, 16, 1.8)
(59, 57, 0.83924334080784413)
(91, 81, 0.32063859304703629)
(91, 71, 0.44018093878147413)
(62, 81, 1.2656088534563905)
(62, 71, 1.3598190612185259)
(62, 5, 0.37539477962122364)
(62, 15, 1.0960072761427933)
(15, 5, 1.8)
(88, 61, 0.30595397936945717)
(88, 14, 0.30476137121963004)
(51, 61, 0.57651609551626182)
(51, 14, 0.6127685538946509)
(34, 80, 0.8415052494637375)
(34, 75, 0.95849475053626243)
(39, 80, 0.41904910366092207)
(39, 75, 0.57231931831981764)
(24, 73, 0.25792670316671767)
(24, 3, 0.72921567438834212)
(13, 73, 0.2246859998685006)
(13, 3, 0.58817162257643962)
(48, 51, 0.43414691165201297)
(48, 69, 1.3658530883479871)
(38, 51, 0.16588202284002498)
(38, 69, 0.075683443125569724)
(24, 89, 0.76488577253208612)
(24, 23, 0.80045595228658373)
(17, 89, 0.22510947408051052)
(17, 23, 0.77443457363290591)
(60, 8, 1.2616114313332094)
(60, 62, 0.53838856866679052)
(86, 8, 0.63753931414571685)
(86, 62, 0.58507483841636398)
(41, 40, 0.39789486493884307)
(41, 71, 0.88713740218169967)
(34, 40, 0.40659579410595353)
(34, 71, 0.51496773287945707)
(8, 88, 0.62139436157039774)
(8, 33, 1.1786056384296024)
(20, 88, 0.48071416124669702)
(20, 33, 0.7342235305314897)
(62, 44, 0.79028352695160109)
(62, 87, 0.69418752830424657)
(71, 44, 0.85761388696356644)
(71, 87, 0.31552894474415227)
(68, 33, 1.5782770370780437)
(68, 76, 1.7999999999999998)
(39, 33, 1.2429055775245588)
(39, 76, 1.3585840512199525)
(40, 90, 0.28799343361605179)
(40, 52, 0.34375085848349751)
(42, 90, 1.1275241512322214)
(42, 52, 1.1682557079004507)
(78, 74, 0.64100468748304129)
(78, 62, 0.1679567463262136)
(71, 74, 1.1589953125169588)
(71, 62, 0.77598412439212017)
(33, 41, 0.36001520727431746)
(33, 14, 0.57666765697636158)
(67, 41, 0.74024870059407977)
(67, 14, 1.2233323430236385)
(14, 9, 1.2115595708568943)
(14, 19, 0.58844042914310557)
(38, 9, 1.2096323144978987)
(38, 19, 0.44466972435868207)
(12, 35, 0.17833740378750812)
(12, 31, 0.1979420860366119)
(68, 35, 0.60402799886476344)
(68, 31, 0.81969251131111653)
(9, 27, 0.26921979951199509)
(9, 70, 0.73940169830421265)
(69, 27, 0.555752643467468)
(69, 70, 1.0605983016957874)
(72, 81, 0.69875396487551311)
(72, 78, 0.42403279536489852)
(65, 81, 0.9102106070781063)
(65, 78, 0.88978939292189374)
(50, 64, 1.0823490796234958)
(50, 91, 0.51211661056827795)
(29, 64, 0.71765092037650424)
(29, 91, 0.37374863522540708)
(56, 66, 0.76161980226715376)
(56, 22, 1.0616368474496189)
(26, 66, 0.72840298399649384)
(26, 22, 0.73836315255038099)
(69, 41, 0.36686381978432092)
(69, 77, 0.74748843642779916)
(71, 41, 0.68564774378788018)
(71, 77, 0.97888273971663875)
(64, 80, 1.1470362942714096)
(64, 35, 0.65296370572859053)
(6, 80, 0.35584591200320159)
(6, 35, 0.26236215907162486)
(17, 86, 1.2956985687690594)
(35, 17, 1.8)
(35, 86, 1.1918081437554815)
(54, 83, 0.30950677492421252)
(54, 44, 0.29596230795548084)
(71, 83, 0.5105114721317825)
(71, 44, 0.68401944498852452)
(27, 9, 0.30978225421403255)
(27, 58, 0.32818566938056998)
(75, 9, 0.64993667140653255)
(75, 58, 0.51209540499886474)
(19, 60, 0.30924089034123131)
(19, 29, 0.57666583748344213)
(12, 60, 0.88373482334753473)
(12, 29, 1.2233341625165577)
(50, 3, 0.46095170221453224)
(50, 78, 0.40536840613602093)
(43, 3, 0.51272202088276431)
(43, 78, 0.42095787076668256)
(43, 82, 1.2370663289581689)
(43, 11, 0.56293367104183112)
(85, 82, 0.75250018580020062)
(85, 11, 0.21132876919460317)
(18, 82, 1.017269862988188)
(18, 63, 0.78273013701181193)
(47, 82, 0.35480467251313585)
(47, 63, 0.23876279747227835)
(24, 17, 0.5173998795025323)
(24, 85, 0.48618601132169825)
(35, 17, 1.2826001204974677)
(35, 85, 0.22718552627141106)
(43, 68, 0.9984726061921062)
(43, 39, 0.69244289166068096)
(60, 68, 0.80152739380789395)
(60, 39, 0.12776517458025705)
(90, 34, 0.44165512861353995)
(90, 85, 0.44900744878990018)
(67, 34, 1.0379536138119829)
(67, 85, 0.76204638618801734)
(41, 81, 0.89487489649617002)
(41, 53, 0.90512510350383013)
(45, 81, 0.26636531368282879)
(45, 53, 0.45777777648961854)
(68, 4, 1.2960229178611664)
(68, 38, 0.50397708213883363)
(79, 4, 0.28621355489762773)
(79, 38, 0.3708793046908137)
(89, 5, 1.2263199497066615)
(89, 47, 0.78094434412708058)
(62, 5, 1.3181091180247559)
(62, 47, 0.48189088197524393)
(62, 34, 1.1464399812003818)
(62, 44, 0.65356001879961834)
(38, 34, 0.54108648168901241)
(38, 44, 0.48387871683272027)
(1, 19, 0.34316792916074035)
(1, 6, 1.8)
(20, 19, 0.30888424862260355)
(20, 6, 1.6225376309074782)
(35, 24, 0.93579099626584861)
(35, 4, 0.25706463485334508)
(23, 24, 0.34621542438372399)
(23, 4, 0.26092894449708259)
(33, 0, 0.29119803775484038)
(33, 45, 1.0882459264768058)
(30, 0, 1.0463647719614027)
(30, 45, 0.71175407352319431)
(52, 65, 1.6669010707453973)
(52, 91, 1.0303174452024115)
(39, 65, 1.2188505677326107)
(39, 91, 0.58114943226738935)
(13, 58, 0.60880388593918078)
(13, 12, 0.57138561696747525)
(47, 58, 0.48500336912146186)
(47, 12, 0.13480712797188199)
(35, 64, 1.0085195779677494)
(35, 63, 0.16709244792086778)
(85, 64, 0.79148042203225044)
(85, 63, 0.10740876848625386)
(17, 12, 0.76163541165782633)
(17, 62, 0.54246842727335787)
(50, 12, 1.1683229435776168)
(50, 62, 0.63167705642238325)
(52, 80, 0.48928463679194778)
(52, 0, 0.1489627725098332)
(71, 80, 1.3107153632080522)
(71, 0, 0.23831382150651387)
(80, 74, 0.56901908406222501)
(80, 76, 0.62525205569917597)
(69, 74, 0.23474549997988264)
(69, 76, 0.3709833602587167)
(44, 90, 0.25834617086949913)
(44, 12, 1.1073575355010701)
(63, 90, 0.68188411366457446)
(63, 12, 0.69264246449892997)
(48, 88, 0.45100947842708106)
(48, 15, 0.79695616352816478)
(74, 88, 0.34747943185260122)
(74, 15, 1.0015110897203177)
(68, 80, 1.1543886384704829)
(68, 59, 0.64561136152951737)
(62, 80, 0.6255062888696391)
(62, 59, 0.36920763628310738)
(43, 75, 1.1026040351260538)
(43, 23, 0.6395882424696131)
(59, 75, 0.69739596487394617)
(59, 23, 0.20386305591375006)
(41, 49, 1.7124582688574417)
(41, 90, 1.1421145015316125)
(76, 49, 1.8)
(76, 90, 0.56999529169669116)
(1, 63, 0.43879057395964904)
(1, 7, 1.8)
(2, 7, 0.39608915684635654)
(2, 63, 0.31321500630918037)
(82, 48, 0.83609115061674344)
(82, 18, 1.2164136825975502)
(45, 48, 0.47148454240120458)
(45, 18, 0.58358631740244959)
(30, 41, 0.84602741912873802)
(30, 29, 0.95397258087126213)
(6, 41, 0.52089379822739279)
(6, 29, 0.8359587984026059)
(11, 67, 0.24738479194725022)
(11, 53, 0.70547007989719912)
(75, 67, 0.83416837012636902)
(75, 53, 0.96583162987363114)
(81, 59, 0.27409388505532983)
(81, 68, 1.3400534493128013)
(52, 59, 0.25729798324313818)
(52, 68, 0.45994655068719886)
(80, 0, 0.72287713376506402)
(80, 42, 1.3202522210950702)
(4, 0, 0.6882588307519697)
(4, 42, 0.47974777890492998)
(48, 75, 0.92009571597972428)
(48, 11, 0.17853462271070059)
(57, 11, 0.13378677063923025)
(57, 75, 0.87990428402027554)
(42, 64, 1.0856091386551869)
(42, 37, 0.26619506427139161)
(4, 64, 0.71439086134481311)
(4, 37, 0.60996173642570151)
(11, 37, 0.6529757166586122)
(11, 54, 1.0679690025746089)
(69, 37, 1.1075541662483521)
(69, 54, 1.8)
(90, 85, 1.8)
(90, 31, 0.51195593540116269)
(47, 85, 0.43673996584891966)
(47, 31, 0.36974363072505201)
(90, 49, 1.8)
(90, 10, 0.9760277531001591)
(47, 49, 0.4649467047791212)
(47, 10, 0.42463534253992191)
(50, 2, 0.50547581717923229)
(50, 27, 1.2945241828207676)
(44, 2, 0.4273929921619456)
(44, 27, 0.95715231046441418)
(74, 72, 0.45811166599524189)
(74, 10, 0.94753459980816401)
(22, 72, 0.43765279373403665)
(22, 10, 0.85246540019183603)
(90, 14, 0.88226199014432205)
(90, 30, 0.44321308931549891)
(38, 30, 0.098848080273157835)
(38, 14, 0.37567684026702153)
(42, 33, 0.079453440249424592)
(42, 28, 1.2761231689657433)
(21, 33, 0.26122245533202054)
(21, 28, 0.52387683103425664)
(12, 32, 1.4004009822781711)
(12, 54, 0.39959901772182921)
(85, 32, 0.93850352077261845)
(85, 54, 0.8018688392493355)
(42, 66, 0.70037778713399168)
(42, 52, 1.0996222128660087)
(46, 66, 0.11121761085896381)
(46, 52, 0.30054812729030383)
(75, 40, 0.56438852324942779)
(75, 7, 1.2356114767505724)
(68, 40, 0.49975821024355743)
(68, 7, 0.69325326053340908)
(44, 50, 1.1507495709743059)
(44, 63, 0.59229215539014812)
(55, 50, 0.64925042902569408)
(55, 63, 0.53865223890679625)
(75, 2, 0.89965544742803694)
(86, 2, 0.87289276031290353)
(86, 75, 0.92710723968709663)
(29, 58, 1.2464282314119892)
(29, 85, 0.26309885883518352)
(7, 58, 0.55357176858801105)
(7, 85, 0.40853744408038317)
(51, 25, 1.0461353210440005)
(51, 5, 1.0083233658962456)
(37, 25, 0.47424170241866392)
(37, 5, 0.79167663410375455)
(2, 12, 0.45105848583355523)
(2, 22, 0.25096335485612065)
(55, 12, 1.3489415141664449)
(55, 22, 0.91777090590980115)
(59, 65, 0.87344504011718072)
(59, 67, 1.6560449194820426)
(47, 65, 0.32861247916419034)
(47, 67, 0.59794248071862877)
(19, 1, 0.32398364559848236)
(19, 44, 0.68290290969078449)
(45, 1, 1.1459560039357368)
(45, 44, 1.1170970903092154)
(13, 81, 1.4543966258847201)
(13, 55, 1.1835505022061357)
(62, 81, 0.34560337411527986)
(62, 55, 0.24334985719945604)
(22, 20, 0.66766354979804954)
(22, 77, 1.1323364502019504)
(62, 20, 0.25052024483535756)
(62, 77, 0.19344302939247737)
(81, 88, 0.40819261558668013)
(81, 86, 1.3918073844133201)
(20, 88, 0.26759451530347039)
(20, 86, 0.56291926724606745)
(72, 40, 0.53856678305754624)
(72, 3, 0.92221028502324787)
(26, 40, 0.72900025319918471)
(26, 3, 0.87778971497675251)
(8, 2, 0.48146288475378934)
(8, 66, 0.80486372446939547)
(55, 66, 0.51367339077681506)
(55, 2, 0.15001626134606275)
(2, 61, 0.19181553380086555)
(2, 87, 0.22120190102679443)
(4, 61, 1.1340066075707926)
(4, 87, 0.25297595760154729)
(72, 49, 0.61707515938980306)
(72, 75, 0.25603167235503893)
(63, 49, 1.1160574248700512)
(63, 75, 0.68394257512994872)
(13, 78, 0.63700591815465113)
(13, 46, 0.60953908825020997)
(71, 78, 1.1629940818453488)
(71, 46, 0.62053887380342054)
(83, 41, 0.88727642158779285)
(83, 53, 1.1847230378426774)
(23, 41, 0.51808399836591534)
(23, 53, 0.61527696215732264)
(40, 11, 0.6749644391017865)
(40, 43, 0.65057426936501672)
(27, 11, 0.80238305035891799)
(27, 43, 0.99761694964108194)
(89, 1, 0.38336624795913599)
(89, 31, 0.21184446671731685)
(51, 1, 0.40990604339848091)
(51, 31, 0.79488324192506643)
(42, 17, 0.72702417989381152)
(42, 34, 0.22905414044815861)
(13, 17, 0.84392167965803011)
(13, 34, 0.50147550463694546)
(80, 17, 0.21266583950878931)
(80, 18, 0.66530957975960914)
(48, 17, 0.34409894351286807)
(48, 18, 0.57792563721873358)
(24, 56, 0.71413361176105916)
(24, 39, 0.15283329480180333)
(27, 56, 0.49571090918443267)
(27, 39, 0.4373221842527048)
(32, 80, 1.1493605934225677)
(32, 2, 0.65063940657743247)
(47, 80, 0.51131962120663177)
(47, 2, 0.44306941128612609)
(24, 82, 1.1142492588809831)
(24, 58, 0.68575074111901668)
(87, 82, 0.4962618439086226)
(87, 58, 0.42717246577852319)
(13, 20, 0.22268054723499517)
(13, 38, 0.16453733130281983)
(71, 20, 1.577319452765005)
(71, 38, 0.20508460783730503)
(26, 33, 0.27656335036315072)
(26, 70, 0.186444731014172)
(12, 33, 0.32078562156877244)
(12, 70, 1.8)
(72, 12, 0.30283071827533053)
(72, 30, 0.25376875725914882)
(56, 12, 0.77682710158249002)
(56, 30, 0.46657342288303072)
(61, 1, 1.1628444455996001)
(61, 53, 0.67433976398138074)
(47, 1, 0.63715555440039995)
(47, 53, 0.43769148175256262)
(80, 40, 0.31545860283417859)
(80, 71, 0.75183957749078634)
(85, 40, 0.22485515161639244)
(85, 71, 0.50784666805864254)
(90, 82, 0.41618613798493809)
(90, 63, 0.66835012468548483)
(68, 82, 0.99275217347801525)
(68, 63, 0.80724782652198479)
(8, 82, 1.2625758788524288)
(8, 19, 0.29410641682671124)
(3, 82, 0.57762873535079373)
(3, 19, 0.24331770432085997)
(29, 0, 0.45618084076232546)
(29, 60, 1.3434386849028086)
(30, 0, 0.37719701940766287)
(30, 60, 0.45656131509719128)
(68, 41, 1.1428816963767385)
(68, 73, 0.35944618063290429)
(7, 41, 0.65711830362326162)
(7, 73, 0.5526026267957761)
(90, 0, 0.32383817367373935)
(90, 3, 0.20349259332113737)
(63, 0, 1.2726692330051232)
(63, 3, 0.87645373011945105)
(27, 74, 0.42204841208360122)
(27, 83, 0.66735682144882091)
(13, 74, 1.0953066690936095)
(13, 83, 0.71059476646757791)
(73, 52, 0.23721712038996609)
(73, 6, 0.49512137589748034)
(23, 52, 0.555546741529511)
(23, 6, 1.2444532584704893)
(18, 62, 0.60880157451330841)
(18, 63, 1.1911984254866916)
(29, 62, 0.9121561674907902)
(29, 63, 1.3818505781614581)
(8, 66, 1.2487429041370992)
(8, 91, 0.19418176576210233)
(6, 66, 0.55125709586290106)
(6, 91, 0.43389586566513816)
(91, 61, 0.55822409011930141)
(91, 55, 0.54767162796383939)
(76, 61, 0.86169368038004257)
(76, 55, 0.69410428191685936)
(65, 41, 0.52729943216749431)
(65, 11, 0.35010470553770939)
(51, 41, 0.6346814269500507)
(51, 11, 1.1653185730499493)
(82, 32, 0.78492208670190189)
(82, 31, 0.42131797332204751)
(54, 32, 0.29713523086627486)
(54, 31, 0.2966247091097759)
(41, 52, 0.58367439961324086)
(41, 60, 1.2163256003867591)
(78, 60, 0.44843788052946143)
(78, 52, 0.39528400544114811)
(73, 80, 0.43943164308313643)
(73, 47, 0.19368071970056555)
(70, 80, 0.8255449886451981)
(70, 47, 0.34134264857109992)
(90, 10, 0.49107777089120641)
(54, 90, 0.1793638814519605)
(54, 10, 1.3089222291087936)
(0, 40, 0.54246759218498453)
(0, 7, 1.2575324078150154)
(72, 40, 0.60358578400099083)
(72, 7, 0.72755885437954237)
(35, 86, 0.98487154326724335)
(35, 39, 0.81512845673275669)
(51, 86, 0.84376877427129093)
(51, 39, 0.16693191573037841)
(2, 40, 0.44976953808276271)
(2, 37, 1.2269323072193459)
(52, 40, 0.38676062710862474)
(52, 37, 0.57306769278065428)
(9, 74, 1.0214192944731255)
(9, 11, 0.25283790982038584)
(38, 74, 0.69246817531504412)
(38, 11, 0.52574279570648841)
(18, 35, 0.26514969455045517)
(18, 60, 1.161014870929272)
(37, 35, 0.15210836094557009)
(37, 60, 0.22172707357470287)
